{
	"info": {
		"_postman_id": "468440c3-f71e-4fe4-a16e-c04ac36f2086",
		"name": "Student",
		"schema": "https://schema.getpostman.com/json/collection/v2.1.0/collection.json"
	},
	"item": [
		{
			"name": "All students",
			"request": {
				"method": "GET",
				"header": [],
				"url": {
					"raw": "http://localhost:8080/student/",
					"protocol": "http",
					"host": [
						"localhost"
					],
					"port": "8080",
					"path": [
						"student",
						""
					]
				}
			},
			"response": [
				{
					"name": "Success",
					"originalRequest": {
						"method": "GET",
						"header": [],
						"url": {
							"raw": "http://localhost:8080/student/",
							"protocol": "http",
							"host": [
								"localhost"
							],
							"port": "8080",
							"path": [
								"student",
								""
							]
						}
					},
					"status": "OK",
					"code": 200,
					"_postman_previewlanguage": "json",
					"header": [
						{
							"key": "Content-Type",
							"value": "application/json"
						},
						{
							"key": "Transfer-Encoding",
							"value": "chunked"
						},
						{
							"key": "Date",
							"value": "Tue, 30 Nov 2021 06:56:51 GMT"
						},
						{
							"key": "Keep-Alive",
							"value": "timeout=60"
						},
						{
							"key": "Connection",
							"value": "keep-alive"
						}
					],
					"cookie": [],
					"body": "[\n    {\n        \"id\": 1,\n        \"firstName\": \"Bidet\",\n        \"lastName\": \"emilien\",\n        \"courseRegistrations\": []\n    },\n    {\n        \"id\": 2,\n        \"firstName\": \"Bidet\",\n        \"lastName\": \"emilien\",\n        \"courseRegistrations\": []\n    },\n    {\n        \"id\": 3,\n        \"firstName\": \"Bidet\",\n        \"lastName\": \"emilien\",\n        \"courseRegistrations\": []\n    }\n]"
				}
			]
		},
		{
			"name": "Filter on lastName and firstName",
			"request": {
				"method": "GET",
				"header": [],
				"url": {
					"raw": "http://localhost:8080/student/?lastName=Suard&firstName=Maël",
					"protocol": "http",
					"host": [
						"localhost"
					],
					"port": "8080",
					"path": [
						"student",
						""
					],
					"query": [
						{
							"key": "lastName",
							"value": "Suard"
						},
						{
							"key": "firstName",
							"value": "Maël"
						}
					]
				}
			},
			"response": [
				{
					"name": "Success",
					"originalRequest": {
						"method": "GET",
						"header": [],
						"url": {
							"raw": "http://localhost:8080/student/?lastName=Suard&firstName=Maël",
							"protocol": "http",
							"host": [
								"localhost"
							],
							"port": "8080",
							"path": [
								"student",
								""
							],
							"query": [
								{
									"key": "lastName",
									"value": "Suard"
								},
								{
									"key": "firstName",
									"value": "Maël"
								}
							]
						}
					},
					"status": "OK",
					"code": 200,
					"_postman_previewlanguage": "json",
					"header": [
						{
							"key": "Content-Type",
							"value": "application/json"
						},
						{
							"key": "Transfer-Encoding",
							"value": "chunked"
						},
						{
							"key": "Date",
							"value": "Thu, 02 Dec 2021 10:33:51 GMT"
						},
						{
							"key": "Keep-Alive",
							"value": "timeout=60"
						},
						{
							"key": "Connection",
							"value": "keep-alive"
						}
					],
					"cookie": [],
					"body": "[\n    {\n        \"id\": 1,\n        \"firstName\": \"Maël\",\n        \"lastName\": \"Suard\",\n        \"courses\": []\n    },\n    {\n        \"id\": 4,\n        \"firstName\": \"Maël\",\n        \"lastName\": \"Suard\",\n        \"courses\": [\n            {\n                \"id\": 2,\n                \"title\": \"Conception logicielle\",\n                \"description\": \"Spring\"\n            }\n        ]\n    },\n    {\n        \"id\": 11,\n        \"firstName\": \"Maël\",\n        \"lastName\": \"Suard\",\n        \"courses\": [\n            {\n                \"id\": 9,\n                \"title\": \"Mathématiques de base\",\n                \"description\": \"Matrices\"\n            }\n        ]\n    },\n    {\n        \"id\": 18,\n        \"firstName\": \"Maël\",\n        \"lastName\": \"Suard\",\n        \"courses\": [\n            {\n                \"id\": 16,\n                \"title\": \"Mathématiques de base\",\n                \"description\": \"Matrices\"\n            }\n        ]\n    },\n    {\n        \"id\": 25,\n        \"firstName\": \"Maël\",\n        \"lastName\": \"Suard\",\n        \"courses\": [\n            {\n                \"id\": 23,\n                \"title\": \"Mathématiques de base\",\n                \"description\": \"Matrices\"\n            }\n        ]\n    },\n    {\n        \"id\": 32,\n        \"firstName\": \"Maël\",\n        \"lastName\": \"Suard\",\n        \"courses\": [\n            {\n                \"id\": 30,\n                \"title\": \"Mathématiques de base\",\n                \"description\": \"Matrices\"\n            }\n        ]\n    },\n    {\n        \"id\": 39,\n        \"firstName\": \"Maël\",\n        \"lastName\": \"Suard\",\n        \"courses\": [\n            {\n                \"id\": 37,\n                \"title\": \"Mathématiques de base\",\n                \"description\": \"Matrices\"\n            }\n        ]\n    },\n    {\n        \"id\": 46,\n        \"firstName\": \"Maël\",\n        \"lastName\": \"Suard\",\n        \"courses\": [\n            {\n                \"id\": 44,\n                \"title\": \"Mathématiques de base\",\n                \"description\": \"Matrices\"\n            }\n        ]\n    },\n    {\n        \"id\": 53,\n        \"firstName\": \"Maël\",\n        \"lastName\": \"Suard\",\n        \"courses\": [\n            {\n                \"id\": 51,\n                \"title\": \"Mathématiques de base\",\n                \"description\": \"Matrices\"\n            }\n        ]\n    },\n    {\n        \"id\": 60,\n        \"firstName\": \"Maël\",\n        \"lastName\": \"Suard\",\n        \"courses\": [\n            {\n                \"id\": 58,\n                \"title\": \"Mathématiques de base\",\n                \"description\": \"Matrices\"\n            }\n        ]\n    },\n    {\n        \"id\": 67,\n        \"firstName\": \"Maël\",\n        \"lastName\": \"Suard\",\n        \"courses\": [\n            {\n                \"id\": 65,\n                \"title\": \"Mathématiques de base\",\n                \"description\": \"Matrices\"\n            }\n        ]\n    },\n    {\n        \"id\": 74,\n        \"firstName\": \"Maël\",\n        \"lastName\": \"Suard\",\n        \"courses\": [\n            {\n                \"id\": 72,\n                \"title\": \"Mathématiques de base\",\n                \"description\": \"Matrices\"\n            }\n        ]\n    },\n    {\n        \"id\": 81,\n        \"firstName\": \"Maël\",\n        \"lastName\": \"Suard\",\n        \"courses\": [\n            {\n                \"id\": 79,\n                \"title\": \"Mathématiques de base\",\n                \"description\": \"Matrices\"\n            }\n        ]\n    },\n    {\n        \"id\": 88,\n        \"firstName\": \"Maël\",\n        \"lastName\": \"Suard\",\n        \"courses\": [\n            {\n                \"id\": 86,\n                \"title\": \"Mathématiques de base\",\n                \"description\": \"Matrices\"\n            }\n        ]\n    }\n]"
				}
			]
		},
		{
			"name": "Single student",
			"request": {
				"method": "GET",
				"header": [],
				"url": {
					"raw": "http://localhost:8080/student/1",
					"protocol": "http",
					"host": [
						"localhost"
					],
					"port": "8080",
					"path": [
						"student",
						"1"
					]
				}
			},
			"response": [
				{
					"name": "Success",
					"originalRequest": {
						"method": "GET",
						"header": [],
						"url": {
							"raw": "http://localhost:8080/student/1",
							"protocol": "http",
							"host": [
								"localhost"
							],
							"port": "8080",
							"path": [
								"student",
								"1"
							]
						}
					},
					"status": "OK",
					"code": 200,
					"_postman_previewlanguage": "json",
					"header": [
						{
							"key": "Content-Type",
							"value": "application/json"
						},
						{
							"key": "Transfer-Encoding",
							"value": "chunked"
						},
						{
							"key": "Date",
							"value": "Thu, 02 Dec 2021 09:58:35 GMT"
						},
						{
							"key": "Keep-Alive",
							"value": "timeout=60"
						},
						{
							"key": "Connection",
							"value": "keep-alive"
						}
					],
					"cookie": [],
					"body": "{\n    \"id\": 1,\n    \"firstName\": \"Maël\",\n    \"lastName\": \"Suard\",\n    \"courses\": []\n}"
				}
			]
		},
		{
			"name": "Add student",
			"request": {
				"method": "POST",
				"header": [],
				"body": {
					"mode": "raw",
					"raw": "{\n    \"lastName\": \"Suard\",\n    \"firstName\": \"Maël\"\n}",
					"options": {
						"raw": {
							"language": "json"
						}
					}
				},
				"url": {
					"raw": "http://localhost:8080/student/",
					"protocol": "http",
					"host": [
						"localhost"
					],
					"port": "8080",
					"path": [
						"student",
						""
					]
				}
			},
			"response": [
				{
					"name": "Success",
					"originalRequest": {
						"method": "POST",
						"header": [],
						"body": {
							"mode": "raw",
							"raw": "{\n    \"lastName\": \"Suard\",\n    \"firstName\": \"Maël\"\n}",
							"options": {
								"raw": {
									"language": "json"
								}
							}
						},
						"url": {
							"raw": "http://localhost:8080/student/",
							"protocol": "http",
							"host": [
								"localhost"
							],
							"port": "8080",
							"path": [
								"student",
								""
							]
						}
					},
					"status": "OK",
					"code": 200,
					"_postman_previewlanguage": "json",
					"header": [
						{
							"key": "Content-Type",
							"value": "application/json"
						},
						{
							"key": "Transfer-Encoding",
							"value": "chunked"
						},
						{
							"key": "Date",
							"value": "Thu, 02 Dec 2021 09:57:30 GMT"
						},
						{
							"key": "Keep-Alive",
							"value": "timeout=60"
						},
						{
							"key": "Connection",
							"value": "keep-alive"
						}
					],
					"cookie": [],
					"body": "{\n    \"id\": 1,\n    \"firstName\": \"Maël\",\n    \"lastName\": \"Suard\",\n    \"courses\": []\n}"
				}
			]
		}
	]
}